Converts angles to radians — convert_angles • amt
…
A numeric vector with the converted angles.

    Examples

as_rad(seq(-180, 180, 30))
#>  [1] -3.1415927 -2.6179939 -2.0943951 -1.5707963 -1.0471976 -0.5235988
#>  [7]  0.0000000  0.5235988  1.0471976  1.5707963  2.0943951  2.6179939
#> [13]  3.1415927

# The default unit of turning angles is rad.
data(deer)
deer |> steps() |> mutate(ta_ = as_degree(ta_))
#> Warning: burst's are ignored, use steps_by_burst instead.
#> # A tibble: 825 × 10
#>         x1_     x2_    y1_    y2_    sl_ direction_p     ta_ t1_                
#>  *    <dbl>   <dbl>  <dbl>  <dbl>  <dbl>       <dbl>   <dbl> <dttm>             
#>  1 4314068.  4.31e6 3.45e6 3.45e6 4.18e1      -1.95    NA    2008-03-30 00:01:47
#>  2 4314053.  4.31e6 3.45e6 3.45e6 1.04e2       1.05   172.   2008-03-30 06:00:54
#>  3 4314105.  4.31e6 3.45e6 3.45e6 9.53e1      -2.27   170.   2008-03-30 12:01:47
#>  4 4314044.  4.31e6 3.45e6 3.45e6 1.03e3       3.07   -54.2  2008-03-30 18:01:24
#>  5 4313015.  4.31e6 3.45e6 3.45e6 1.55e2      -3.14     4.33 2008-03-31 00:01:23
#>  6 4312860.  4.31e6 3.45e6 3.45e6 6.08e0      -2.99     8.35 2008-03-31 06:01:45
#>  7 4312854.  4.31e6 3.45e6 3.45e6 4.47e0       0.449 -163.   2008-03-31 12:01:11
#>  8 4312858.  4.31e6 3.45e6 3.45e6 1.13e2       3.11   152.   2008-03-31 18:01:55
#>  9 4312745.  4.31e6 3.45e6 3.45e6 1.87e2       2.09   -58.2  2008-04-01 00:01:24
#> 10 4312651.  4.31e6 3.45e6 3.45e6 6.32e0       1.88   -12.4  2008-04-01 06:00:54
#> # ℹ 815 more rows
#> # ℹ 2 more variables: t2_ <dttm>, dt_ <drtn>
…
