Extract covariate values — extract_covariates • amt
…
# \donttest{
# Illustration of extracting covariates along the a step
mini_deer |> steps() |> random_steps() |>
  extract_covariates(sh_forest) |> # extract at the endpoint
  (\(.) mutate(., for_path = extract_covariates_along(., sh_forest)))()  |>
  # 1 = forest, lets calc the fraction of forest along the path
  mutate(for_per = purrr::map_dbl(for_path, function(x) mean(x == 1)))
#> Warning: burst's are ignored, use steps_by_burst instead.
#> # A tibble: 198 × 14
#>         x1_      x2_      y1_      y2_      sl_    ta_ t1_                
#>  *    <dbl>    <dbl>    <dbl>    <dbl>    <dbl>  <dbl> <dttm>             
#>  1 4314053. 4314105. 3445768. 3445859.  104.     3.00  2008-03-30 06:00:54
#>  2 4314053. 4314091. 3445768. 3445706.   73.0    0.931 2008-03-30 06:00:54
#>  3 4314053. 4314051. 3445768. 3445773.    5.15  -2.39  2008-03-30 06:00:54
#>  4 4314053. 4313947. 3445768. 3445583.  213.    -0.138 2008-03-30 06:00:54
#>  5 4314053. 4314034. 3445768. 3445802.   38.4   -2.26  2008-03-30 06:00:54
#>  6 4314053. 4313966. 3445768. 3445655.  143.    -0.274 2008-03-30 06:00:54
#>  7 4314053. 4314053. 3445768. 3445768.    0.653  0.154 2008-03-30 06:00:54
#>  8 4314053. 4314054. 3445768. 3445768.    1.30   1.90  2008-03-30 06:00:54
#>  9 4314053. 4314052. 3445768. 3445770.    2.09  -2.65  2008-03-30 06:00:54
#> 10 4314053. 4315141. 3445768. 3444674. 1544.     1.16  2008-03-30 06:00:54
#> # … with 188 more rows, and 7 more variables: t2_ <dttm>, dt_ <drtn>,
#> #   case_ <lgl>, step_id_ <dbl>, forest <dbl>, for_path <list>, for_per <dbl>
…
