Resource Selection Functions (RSF) with `amt` • amt
…
This vignette briefly introduces how one can fit a Resource-Selection
Function (RSF) with the amt package. We will be using the
example data of one red deer from northern Germany and one covariate: a
forest cover map.

Getting the data ready

First we load the required libraries and the relocation data (called
deer)

library(amt)
data("deer")
deer

## # A tibble: 826 × 4
##          x_       y_ t_                  burst_
##  *    <dbl>    <dbl> <dttm>               <dbl>
##  1 4314068. 3445807. 2008-03-30 00:01:47      1
##  2 4314053. 3445768. 2008-03-30 06:00:54      1
##  3 4314105. 3445859. 2008-03-30 12:01:47      1
##  4 4314044. 3445785. 2008-03-30 18:01:24      1
##  5 4313015. 3445858. 2008-03-31 00:01:23      1
##  6 4312860. 3445857. 2008-03-31 06:01:45      1
##  7 4312854. 3445856. 2008-03-31 12:01:11      1
##  8 4312858. 3445858. 2008-03-31 18:01:55      1
##  9 4312745. 3445862. 2008-04-01 00:01:24      1
## 10 4312651. 3446024. 2008-04-01 06:00:54      1
## # ℹ 816 more rows
…
